<svg width="34" height="34" viewBox="0 0 34 34" fill="none" xmlns="http://www.w3.org/2000/svg">
<path d="M17 0C7.60483 0 0 7.60332 0 17C0 26.3952 7.60332 34 17 34C20.3009 34 23.5355 33.0307 26.282 31.2428C27.1049 30.7071 27.2845 29.5779 26.6626 28.8181L25.965 27.9658C25.4391 27.3235 24.5132 27.1661 23.8144 27.6142C21.7929 28.9108 19.4207 29.6129 17 29.6129C10.0452 29.6129 4.3871 23.9548 4.3871 17C4.3871 10.0452 10.0452 4.3871 17 4.3871C23.8644 4.3871 29.6129 8.33679 29.6129 15.3548C29.6129 18.0136 28.167 20.821 25.6254 21.0919C24.4362 21.0607 24.4663 20.2105 24.7017 19.0338L26.308 10.7319C26.5044 9.71673 25.7268 8.77419 24.6928 8.77419H21.6095C21.3818 8.77419 21.1621 8.85799 20.9923 9.00962C20.8225 9.16125 20.7144 9.37009 20.6887 9.59629L20.688 9.6026C19.6806 8.37552 17.9154 8.10996 16.5771 8.10996C11.4648 8.10996 7.12903 12.376 7.12903 18.4923C7.12903 22.9687 9.65059 25.7495 13.7097 25.7495C15.5594 25.7495 17.6422 24.6776 18.8502 23.1219C19.5029 25.4596 21.6341 25.4596 23.6972 25.4596C31.1627 25.4596 34 20.5507 34 15.3548C34 6.00847 26.4613 0 17 0ZM15.5139 20.8682C13.9887 20.8682 13.0413 19.7973 13.0413 18.0734C13.0413 14.9892 15.1512 13.0879 17.0603 13.0879C18.5884 13.0879 19.5007 14.1327 19.5007 15.8827C19.5007 18.9715 17.1786 20.8682 15.5139 20.8682Z" fill="url(#paint0_linear)"/>
<defs>
<linearGradient id="paint0_linear" x1="0" y1="34" x2="34" y2="0" gradientUnits="userSpaceOnUse">
<stop stop-color="#0DAD9C"/>
<stop offset="1" stop-color="#1CDCC8"/>
</linearGradient>
</defs>
</svg>
