<svg width="34" height="34" viewBox="0 0 34 34" fill="none" xmlns="http://www.w3.org/2000/svg">
    <path d="M30.3571 34H3.64286C1.63094 34 0 32.3691 0 30.3571V3.64286C0 1.63094 1.63094 0 3.64286 0H30.3571C32.3691 0 34 1.63094 34 3.64286V30.3571C34 32.3691 32.3691 34 30.3571 34ZM14.8229 26.558L28.7872 12.5937C29.2614 12.1196 29.2614 11.3507 28.7872 10.8765L27.07 9.15928C26.5958 8.6851 25.8269 8.68503 25.3527 9.15928L13.9643 20.5476L8.64731 15.2306C8.17313 14.7565 7.40426 14.7565 6.93 15.2306L5.21278 16.9479C4.7386 17.422 4.7386 18.1909 5.21278 18.6651L13.1056 26.5579C13.5799 27.0323 14.3487 27.0323 14.8229 26.558Z" fill="url(#paint0_linear)"/>
    <defs>
    <linearGradient id="paint0_linear" x1="34" y1="0" x2="0" y2="34" gradientUnits="userSpaceOnUse">
    <stop stop-color="#1CDCC8"/>
    <stop offset="1" stop-color="#0DAD9C"/>
    </linearGradient>
    </defs>
    </svg>
