<svg width="45" height="35" viewBox="0 0 45 35" fill="none" xmlns="http://www.w3.org/2000/svg">
<g clip-path="url(#clip0)">
<path d="M42.6018 8.01172L38.7714 11.8262L34.1089 7.19141L39.9267 1.40137C40.4494 0.881836 40.078 0 39.3422 0H38.5651C38.3451 0 38.1388 0.0888672 37.9806 0.239258L14.7439 23.3652C12.7221 25.3818 9.55188 22.3535 11.6356 20.2754C13.7811 18.1426 13.7811 14.6768 11.6356 12.5439C9.48999 10.4111 6.0172 10.4043 3.86476 12.5439C1.36848 15.0186 0 18.3135 0 21.8203C0 29.1006 5.92093 34.9385 13.1897 34.9385C19.3376 34.9385 22.4046 31.2129 24.4745 29.1484C25.3204 32.5937 28.4906 35.1436 32.2453 34.9932C36.227 34.8359 39.4522 31.623 39.6173 27.6582C39.7686 23.9258 37.2104 20.7676 33.7445 19.9268L43.7777 9.94629C43.929 9.78906 44.0184 9.58398 44.0184 9.36523V8.59277C44.0115 7.86133 43.1244 7.49219 42.6018 8.01172ZM13.1897 32.751C7.08311 32.751 2.20058 27.8428 2.20058 21.8203C2.20058 18.8945 3.34213 16.1533 5.41892 14.082C6.70488 12.7969 8.78856 12.7969 10.0814 14.082C11.3674 15.3603 11.3674 17.4453 10.0814 18.7236C8.36907 20.4258 8.36907 23.2012 10.0883 24.917C11.8075 26.6191 14.5926 26.6191 16.298 24.9102L32.5548 8.72949L37.2173 13.3711L30.7599 19.8037C27.4591 20.3096 24.8665 22.8936 24.3576 26.1748C20.9124 29.6064 18.5467 32.751 13.1897 32.751ZM37.4167 27.3437C37.4167 30.3584 34.9548 32.8125 31.9221 32.8125C28.8895 32.8125 26.4276 30.3584 26.4276 27.3437C26.4276 24.3291 28.8895 21.875 31.9221 21.875C34.9548 21.875 37.4167 24.3291 37.4167 27.3437Z" fill="#BFBFBF"/>
</g>
<defs>
<clipPath id="clip0">
<rect width="44.0115" height="35" fill="white"/>
</clipPath>
</defs>
</svg>
