<svg width="44" height="35" viewBox="0 0 44 35" fill="none" xmlns="http://www.w3.org/2000/svg">
<g clip-path="url(#clip0)">
<path d="M8.56497 18.9924C6.96485 18.9924 5.40066 19.4617 4.07021 20.3411C2.73976 21.2205 1.7028 22.4704 1.09045 23.9328C0.478115 25.3951 0.317899 27.0043 0.630067 28.5567C0.942235 30.1092 1.71277 31.5352 2.84422 32.6544C3.97568 33.7737 5.41725 34.5359 6.98662 34.8447C8.556 35.1535 10.1827 34.995 11.661 34.3893C13.1393 33.7835 14.4029 32.7578 15.2919 31.4417C16.1808 30.1256 16.6553 28.5783 16.6553 26.9954C16.6553 24.8729 15.803 22.8373 14.2857 21.3364C12.7685 19.8355 10.7107 18.9924 8.56497 18.9924ZM8.56497 32.8643C7.39155 32.8643 6.24448 32.5201 5.26881 31.8752C4.29315 31.2303 3.53271 30.3137 3.08366 29.2413C2.63461 28.1689 2.51712 26.9889 2.74604 25.8504C2.97496 24.712 3.54002 23.6662 4.36976 22.8455C5.19949 22.0247 6.25664 21.4657 7.40751 21.2393C8.55839 21.0128 9.75131 21.129 10.8354 21.5732C11.9195 22.0175 12.8461 22.7697 13.498 23.7348C14.1499 24.7 14.4979 25.8346 14.4979 26.9954C14.4961 28.5514 13.8705 30.0431 12.7582 31.1434C11.646 32.2436 10.1379 32.8625 8.56497 32.8643ZM35.5328 18.9924C33.9327 18.9924 32.3685 19.4617 31.0381 20.3411C29.7076 21.2205 28.6707 22.4704 28.0583 23.9328C27.446 25.3951 27.2858 27.0043 27.5979 28.5567C27.9101 30.1092 28.6806 31.5352 29.8121 32.6544C30.9435 33.7737 32.3851 34.5359 33.9545 34.8447C35.5239 35.1535 37.1506 34.995 38.6289 34.3893C40.1072 33.7835 41.3707 32.7578 42.2597 31.4417C43.1487 30.1256 43.6232 28.5783 43.6232 26.9954C43.6232 24.8729 42.7708 22.8373 41.2536 21.3364C39.7363 19.8355 37.6785 18.9924 35.5328 18.9924ZM35.5328 32.8643C34.3594 32.8643 33.2123 32.5201 32.2367 31.8752C31.261 31.2303 30.5006 30.3137 30.0515 29.2413C29.6025 28.1689 29.485 26.9889 29.7139 25.8504C29.9428 24.712 30.5079 23.6662 31.3376 22.8455C32.1674 22.0247 33.2245 21.4657 34.3754 21.2393C35.5263 21.0128 36.7192 21.129 37.8033 21.5732C38.8874 22.0175 39.814 22.7697 40.4659 23.7348C41.1178 24.7 41.4658 25.8346 41.4658 26.9954C41.464 28.5514 40.8383 30.0431 39.7261 31.1434C38.6138 32.2436 37.1058 32.8625 35.5328 32.8643ZM25.7105 17.2444C26.2838 17.6941 26.9939 17.9392 27.7256 17.94H31.7573C32.6156 17.94 33.4387 17.6027 34.0456 17.0023C34.6525 16.402 34.9935 15.5878 34.9935 14.7387C34.9935 13.8897 34.6525 13.0755 34.0456 12.4751C33.4387 11.8748 32.6156 11.5375 31.7573 11.5375H28.8617L27.4243 10.4004C27.6089 10.4297 27.795 10.4482 27.9818 10.4558C29.0253 10.4568 30.0414 10.1255 30.8797 9.51092C31.7181 8.89634 32.3341 8.03112 32.6367 7.04328C32.9394 6.05545 32.9125 4.99748 32.5601 4.02593C32.2077 3.05439 31.5484 2.22087 30.6799 1.64873C29.8114 1.07658 28.7798 0.796209 27.7377 0.849087C26.6956 0.901966 25.6984 1.28529 24.8937 1.94234C24.0889 2.59939 23.5194 3.49525 23.2693 4.49737C23.0192 5.49949 23.1019 6.55463 23.5052 7.50665C22.9623 7.28328 22.3669 7.21487 21.7867 7.30918C21.2065 7.40348 20.6646 7.65672 20.2225 8.04018L13.5311 13.3089C12.6985 14.0098 12.2872 14.9635 12.3465 15.9725C12.3735 16.4673 12.517 16.9489 12.7656 17.379C13.0143 17.809 13.3611 18.1756 13.7785 18.4495L18.8128 21.7727V27.5289C18.8128 28.378 19.1537 29.1922 19.7606 29.7925C20.3675 30.3929 21.1906 30.7302 22.0489 30.7302C22.9072 30.7302 23.7303 30.3929 24.3372 29.7925C24.9441 29.1922 25.285 28.378 25.285 27.5289V20.0594C25.2856 19.5329 25.1546 19.0144 24.9037 18.5501C24.6528 18.0857 24.2898 17.6899 23.847 17.3977L22.9483 16.7975L24.0607 15.9492L25.7105 17.2444ZM27.9818 2.98626C28.5152 2.98626 29.0366 3.14271 29.4801 3.43584C29.9236 3.72897 30.2692 4.14561 30.4733 4.63306C30.6775 5.12052 30.7309 5.6569 30.6268 6.17438C30.5227 6.69186 30.2659 7.16719 29.8887 7.54028C29.5116 7.91336 29.0311 8.16743 28.5079 8.27036C27.9848 8.3733 27.4426 8.32047 26.9498 8.11856C26.457 7.91665 26.0359 7.57472 25.7395 7.13602C25.4432 6.69733 25.285 6.18156 25.285 5.65394C25.285 4.94643 25.5692 4.26789 26.0749 3.7676C26.5807 3.26732 27.2666 2.98626 27.9818 2.98626ZM22.6476 19.1718C22.7953 19.2692 22.9163 19.4012 23.0001 19.5561C23.0838 19.7109 23.1276 19.8838 23.1276 20.0594V27.5289C23.1276 27.8119 23.014 28.0834 22.8117 28.2835C22.6094 28.4836 22.335 28.596 22.0489 28.596C21.7628 28.596 21.4884 28.4836 21.2861 28.2835C21.0838 28.0834 20.9702 27.8119 20.9702 27.5289V20.6303L14.9779 16.6788C14.8395 16.5873 14.7243 16.4654 14.6415 16.3226C14.5586 16.1797 14.5103 16.0199 14.5003 15.8555C14.4903 15.6911 14.5189 15.5267 14.5839 15.375C14.6488 15.2234 14.7484 15.0887 14.8748 14.9815L21.6302 9.6608C21.8209 9.4989 22.0627 9.40791 22.3139 9.40352C22.5651 9.39914 22.81 9.48164 23.0063 9.63679L28.1045 13.6717H31.7573C32.0434 13.6717 32.3178 13.7841 32.5201 13.9842C32.7224 14.1843 32.836 14.4557 32.836 14.7387C32.836 15.0217 32.7224 15.2932 32.5201 15.4933C32.3178 15.6934 32.0434 15.8058 31.7573 15.8058H27.7256C27.4806 15.806 27.2429 15.7237 27.0514 15.5724L24.0789 13.2382L19.2631 16.9136L22.6476 19.1718Z" fill="#BFBFBF"/>
</g>
<defs>
<clipPath id="clip0">
<rect width="43.1486" height="34.1463" fill="white" transform="translate(0.474609 0.853516)"/>
</clipPath>
</defs>
</svg>
