<svg width="43" height="34" viewBox="0 0 43 34" fill="none" xmlns="http://www.w3.org/2000/svg">
    <path d="M0 3.64286V30.3571C0 32.3683 1.60503 34 3.58333 34H7.16667V0H3.58333C1.60503 0 0 1.6317 0 3.64286ZM9.55556 34H33.4444V0H9.55556V34ZM14.3333 15.1786C14.3333 14.8446 14.6021 14.5714 14.9306 14.5714H19.1111V10.3214C19.1111 9.9875 19.3799 9.71429 19.7083 9.71429H23.2917C23.6201 9.71429 23.8889 9.9875 23.8889 10.3214V14.5714H28.0694C28.3979 14.5714 28.6667 14.8446 28.6667 15.1786V18.8214C28.6667 19.1554 28.3979 19.4286 28.0694 19.4286H23.8889V23.6786C23.8889 24.0125 23.6201 24.2857 23.2917 24.2857H19.7083C19.3799 24.2857 19.1111 24.0125 19.1111 23.6786V19.4286H14.9306C14.6021 19.4286 14.3333 19.1554 14.3333 18.8214V15.1786ZM39.4167 0H35.8333V34H39.4167C41.395 34 43 32.3683 43 30.3571V3.64286C43 1.6317 41.395 0 39.4167 0Z" fill="url(#paint0_linear)"/>
    <defs>
    <linearGradient id="paint0_linear" x1="-1.2815e-06" y1="34" x2="43" y2="1.94592e-06" gradientUnits="userSpaceOnUse">
    <stop stop-color="#0DAD9C"/>
    <stop offset="1" stop-color="#1CDCC8"/>
    </linearGradient>
    </defs>
    </svg>
