<svg width="113" height="22" viewBox="0 0 113 22" fill="none" xmlns="http://www.w3.org/2000/svg">
<path d="M96.7774 11.7701C96.372 8.91159 94.7969 7.25738 92.0101 6.88016C89.5632 6.54894 87.509 7.27467 86.1937 9.64874C85.158 8.00054 83.69 7.13448 81.8619 6.8617C79.9923 6.58278 78.3652 7.09624 76.8879 8.61787C76.8879 7.90986 76.8879 7.41691 76.8879 6.91854C75.5523 6.91854 74.3027 6.91854 73.0278 6.91854C73.0278 11.597 73.0278 16.2376 73.0278 20.8773C74.3314 20.8773 75.583 20.8773 76.9103 20.8773C76.9103 19.7131 76.9012 18.6269 76.9125 17.5409C76.9287 15.9891 76.8698 14.4293 77.0066 12.8879C77.1892 10.8326 79.1568 9.66544 81.0343 10.4124C82.3786 10.9471 82.8068 12.1274 82.8409 13.453C82.8988 15.6922 82.866 17.9338 82.8712 20.1744C82.8716 20.4081 82.8712 20.6418 82.8712 20.8703C84.285 20.8703 85.5986 20.8703 86.9775 20.8703C86.9775 20.5717 86.9765 20.3098 86.9778 20.0479C86.9885 17.7409 86.9769 15.4336 87.0212 13.1274C87.0404 12.1254 87.466 11.2713 88.2969 10.7035C90.2874 9.34345 92.7421 10.6616 92.8699 13.2053C92.9631 15.0643 92.9137 16.9309 92.9253 18.7942C92.9294 19.4765 92.926 20.1589 92.926 20.8575C94.3053 20.8575 95.612 20.8575 96.9142 20.8575C96.9307 20.7406 96.948 20.675 96.948 20.6094C96.9511 18.5904 96.9696 16.5714 96.9467 14.5529C96.9361 13.6243 96.9075 12.6872 96.7774 11.7701Z" fill="white"/>
<path d="M46.5458 9.72341C47.9462 9.71857 49.1265 10.7147 49.3861 12.0452H43.7971C44.0245 10.7238 45.1648 9.72824 46.5458 9.72341ZM53.1585 12.6257C52.797 10.3831 51.9256 8.44496 49.7503 7.4743C48.0061 6.69583 46.1821 6.56472 44.3572 7.17062C41.129 8.24207 39.3258 11.5051 39.8808 15.2018C40.3043 18.0227 42.4746 20.3417 45.2003 20.8856C48.039 21.452 50.9487 20.18 52.3874 17.74C52.4913 17.5637 52.5732 17.3739 52.6856 17.1499C51.7168 16.8745 50.8359 16.6483 49.9711 16.3695C49.4382 16.1977 49.0295 16.1366 48.6433 16.7106C48.4158 17.0482 47.9839 17.2901 47.5957 17.4578C45.9043 18.1881 43.8618 16.9574 43.7979 15.1299C46.9546 15.1299 50.1096 15.1299 53.3767 15.1299C53.3028 14.2416 53.2872 13.4241 53.1585 12.6257Z" fill="white"/>
<path d="M34.8032 6.86046C34.8032 5.54129 34.8032 4.29536 34.8032 2.99333C33.458 3.21219 32.2039 3.41611 30.8883 3.63028C30.8883 4.72151 30.8883 5.77363 30.8883 6.8842C30.2217 6.8842 29.6235 6.8842 29.0005 6.8842C29.0005 8.01498 29.0005 9.08409 29.0005 10.2147C29.6432 10.2147 30.2411 10.2147 30.9075 10.2147C30.9075 11.5335 30.8905 12.7917 30.9121 14.0492C30.9367 15.4881 30.9459 16.9303 31.0565 18.3634C31.1401 19.4495 31.5873 20.4069 32.6606 20.8282C34.3648 21.4974 36.0042 21.0321 37.6516 20.4989C37.5199 19.5604 37.4006 18.7111 37.2768 17.8281C36.8427 17.9572 36.4736 18.0807 36.0977 18.1759C35.2129 18.4003 34.8131 18.1019 34.8089 17.1739C34.8003 15.245 34.8167 13.3161 34.8222 11.3873C34.8234 11.0172 34.8224 10.6473 34.8224 10.2087C35.7271 10.2087 36.5465 10.2229 37.365 10.1973C37.5401 10.1917 37.8581 10.0468 37.8612 9.9569C37.897 8.94975 37.8838 7.94071 37.8838 6.86046C36.8169 6.86046 35.8509 6.86046 34.8032 6.86046Z" fill="white"/>
<path d="M105.907 17.6838C103.799 17.6838 102.09 15.9357 102.09 13.7792C102.09 11.6228 103.799 9.87472 105.907 9.87472C108.015 9.87472 109.724 11.6228 109.724 13.7792C109.724 15.9357 108.015 17.6838 105.907 17.6838ZM105.907 6.52427C101.99 6.52427 98.8145 9.77247 98.8145 13.7792C98.8145 17.7861 101.99 21.0343 105.907 21.0343C109.824 21.0343 113 17.7861 113 13.7792C113 9.77247 109.824 6.52427 105.907 6.52427Z" fill="white"/>
<path d="M62.3739 17.7629C60.3138 17.7629 58.6438 16.0546 58.6438 13.9473C58.6438 11.84 60.3138 10.1317 62.3739 10.1317C64.4339 10.1317 66.1039 11.84 66.1039 13.9473C66.1039 16.0546 64.4339 17.7629 62.3739 17.7629ZM65.7841 7.09228C65.763 7.40065 65.7454 7.65921 65.7221 8.0001C62.3388 5.88664 58.9835 6.8976 57.2085 8.91994C55.048 11.3815 54.7669 15.2961 56.5751 18.0528C57.3977 19.3068 58.5007 20.2002 59.9122 20.6741C61.9546 21.3597 63.8669 20.9889 65.7131 19.8255C65.7473 20.2349 65.7736 20.5521 65.8006 20.8735C67.0943 20.8735 68.3423 20.8735 69.6215 20.8735C69.6215 16.2609 69.6215 11.6834 69.6215 7.09228C68.3187 7.09228 67.0564 7.09228 65.7841 7.09228Z" fill="white"/>
<path d="M20.794 15.6071C20.794 17.0437 19.6554 18.2081 18.2512 18.2081C16.8469 18.2081 15.7085 17.0437 15.7085 15.6071C15.7085 14.1706 16.8469 13.0061 18.2512 13.0061C19.6554 13.0061 20.794 14.1706 20.794 15.6071Z" fill="white"/>
<path d="M18.0156 5.50828C18.4164 5.69169 18.8163 5.87642 19.213 6.06818C19.5251 6.21892 19.8134 6.42093 20.1038 6.61811C20.2006 6.68389 20.2977 6.74908 20.396 6.81163C20.4066 6.79772 20.4172 6.78365 20.4278 6.76944C20.4384 6.75537 20.449 6.74131 20.4594 6.72725L16.7661 0.0598917L13.2749 0.0355721C13.0753 0.0253172 12.8743 0.0200424 12.6722 0.0200424C12.5308 0.0200424 12.3903 0.0234165 12.2501 0.0283976L8.16883 -2.19345e-05L7.81086 0.632977L7.45294 1.26582L6.11478 3.53443L4.77664 5.80302L4.65967 8.7345L4.66974 8.72015C4.66319 9.64174 4.74442 10.5695 4.86862 11.4909C4.87275 11.5215 4.88136 11.5535 4.89374 11.5857C4.95549 11.7471 5.11135 11.921 5.27341 12.0296C5.33825 12.0729 5.40409 12.1059 5.4653 12.1235C5.49221 12.1311 5.52168 12.1345 5.55284 12.1348C5.58127 12.1349 5.61113 12.132 5.64197 12.1267L5.66876 12.1204C5.69136 12.1154 5.71413 12.11 5.73729 12.1027L5.77332 12.0898C5.79379 12.0825 5.81427 12.0747 5.83475 12.0658L5.87273 12.048C5.89247 12.0385 5.91199 12.0286 5.93124 12.0177L5.96816 11.9966C5.98724 11.985 6.00581 11.973 6.024 11.9606L6.05705 11.9379C6.07607 11.924 6.09382 11.9095 6.1112 11.8948L6.13655 11.8739C6.161 11.8519 6.18383 11.8295 6.20352 11.8069C6.3055 11.69 6.31959 11.4761 6.31797 11.2709C6.31747 11.2025 6.31518 11.1349 6.31389 11.0724V11.0722C6.30729 10.7633 6.31457 10.4608 6.33605 10.1647C6.36833 9.72084 6.43266 9.29205 6.5301 8.87836C6.59512 8.60266 6.67483 8.3337 6.76965 8.07177C6.91186 7.67873 7.08797 7.30151 7.29921 6.94011C7.44002 6.69927 7.59638 6.46546 7.76874 6.23898C8.11334 5.78603 8.52172 5.36193 8.99645 4.96786C9.0345 4.93622 9.07125 4.8996 9.10576 4.85961C9.20932 4.73904 9.29261 4.58683 9.32936 4.44151C9.35426 4.34307 9.38179 4.24697 9.41182 4.15307C9.47195 3.96556 9.54223 3.78786 9.62206 3.62012C9.74188 3.36874 9.88325 3.14021 10.0446 2.93659C10.0983 2.86876 10.1543 2.80371 10.2124 2.74145C10.3286 2.61679 10.4534 2.50355 10.5862 2.40203C10.7855 2.24982 11.0028 2.12428 11.2365 2.0273C11.3923 1.96255 11.5554 1.91054 11.7252 1.87158C11.8949 1.83276 12.0715 1.80712 12.2543 1.7951C12.3185 1.791 12.3824 1.78881 12.446 1.78881L12.4797 1.79027C12.5175 1.79071 12.555 1.79306 12.5925 1.79496C12.6376 1.7973 12.6828 1.79965 12.7275 1.80404C12.765 1.80771 12.8019 1.81298 12.8391 1.81811C12.8829 1.82426 12.9268 1.83041 12.9702 1.83861C13.0073 1.8455 13.0438 1.8537 13.0805 1.86205C13.1232 1.87172 13.1656 1.88198 13.2076 1.89355C13.2438 1.90351 13.2796 1.91465 13.3154 1.92607C13.3569 1.93941 13.3981 1.95317 13.4389 1.96826C13.4743 1.9813 13.5092 1.99537 13.5441 2.00972C13.5842 2.02642 13.6239 2.04385 13.6632 2.06231C13.6975 2.07828 13.7315 2.09498 13.7653 2.11241C13.804 2.13233 13.8421 2.15328 13.8801 2.17496C13.9131 2.19386 13.9459 2.21305 13.9784 2.23327C14.0158 2.25656 14.0526 2.28117 14.0892 2.30608C14.1206 2.32761 14.152 2.34929 14.1828 2.372C14.2188 2.39866 14.2539 2.42649 14.289 2.45477C14.3189 2.47894 14.3488 2.50296 14.3782 2.52816C14.4125 2.55804 14.4461 2.58925 14.4794 2.62075C14.5075 2.64726 14.5359 2.67333 14.5632 2.70087C14.5961 2.73413 14.6279 2.76885 14.6597 2.80357C14.6859 2.83214 14.7124 2.86026 14.7379 2.89C14.7691 2.92662 14.7991 2.96486 14.8293 3.00294C14.8532 3.03341 14.8777 3.06315 14.901 3.0945C14.931 3.13508 14.9592 3.17742 14.9878 3.21947C15.0093 3.25096 15.0314 3.28172 15.052 3.3141C15.0811 3.35951 15.108 3.40697 15.1353 3.45414C15.1537 3.48564 15.1729 3.51597 15.1903 3.5482C15.2197 3.60181 15.2466 3.65777 15.2738 3.71344C15.2874 3.74127 15.3022 3.76794 15.3152 3.79636C15.3545 3.88132 15.3916 3.96834 15.4261 4.0577C15.4985 4.24594 15.6927 4.43301 15.8762 4.52076C16.1527 4.65319 16.4304 4.7827 16.709 4.91088C17.0272 5.05737 17.3463 5.2024 17.6651 5.34772L18.0156 5.50828Z" fill="white"/>
<path d="M4.02177 10.119C3.98937 9.73974 3.95849 9.36032 3.93304 8.98046C3.92515 8.86312 3.92348 8.74534 3.92566 8.62727C3.9322 8.27305 3.97383 7.91634 3.99033 7.56139C3.95597 7.55626 3.92163 7.55113 3.88729 7.546L0 14.097L1.68281 17.2261C1.77142 17.4094 1.86496 17.5914 1.96364 17.7718C2.03262 17.8981 2.10411 18.0219 2.17678 18.1447L4.14405 21.8025L5.57351 21.824L8.20449 21.9132L10.7511 21.9996L13.3096 20.6737L13.2926 20.6717C13.8848 20.3387 14.4558 19.9602 15.0104 19.5551C15.1953 19.4202 15.3785 19.2822 15.5598 19.1421C15.6082 19.1048 15.6516 19.0493 15.6887 18.9832C15.7256 18.9171 15.7563 18.8402 15.7791 18.7602C15.8245 18.6001 15.8382 18.4271 15.8084 18.3007C15.7957 18.2466 15.7653 18.1915 15.7229 18.1384C15.6807 18.0853 15.6265 18.0342 15.5663 17.9882C15.536 17.9651 15.5044 17.9434 15.472 17.9232C15.3746 17.8627 15.2702 17.817 15.1781 17.796C15.1552 17.7909 15.1312 17.7893 15.1065 17.7896C15.0639 17.79 15.0187 17.7991 14.9726 17.8127L14.9502 17.8192C14.905 17.8341 14.8591 17.8534 14.813 17.876L14.7869 17.889C14.7408 17.9125 14.6948 17.9378 14.65 17.9642L14.6172 17.9838C14.5779 18.0072 14.5388 18.031 14.5023 18.053L14.4975 18.056C14.3534 18.1426 14.2088 18.2233 14.064 18.3005C14.0181 18.3248 13.9719 18.3471 13.926 18.3706C13.8262 18.4214 13.7264 18.4709 13.6263 18.517C13.5725 18.5419 13.5185 18.5655 13.4645 18.589C13.3703 18.6301 13.276 18.6693 13.1814 18.7063C13.1267 18.7277 13.0719 18.7489 13.0171 18.769C12.9188 18.8049 12.8204 18.8377 12.7217 18.8691C12.6721 18.885 12.6225 18.9019 12.5728 18.9165C12.4469 18.9536 12.3207 18.9866 12.1943 19.0164C12.1723 19.0216 12.1505 19.0282 12.1285 19.0331C11.9799 19.0665 11.8309 19.0942 11.6815 19.1174C11.6385 19.124 11.5953 19.1282 11.5522 19.1339C11.4455 19.1483 11.3387 19.1612 11.2315 19.1703C11.1764 19.1749 11.1212 19.1777 11.066 19.181C10.9691 19.1867 10.8719 19.1906 10.7746 19.1919C10.7444 19.1924 10.7145 19.1953 10.6844 19.1953C10.645 19.1953 10.6055 19.1931 10.5661 19.1924C10.5217 19.1915 10.4774 19.1906 10.433 19.189C10.3424 19.1855 10.2516 19.1795 10.1606 19.1722C10.1243 19.1692 10.088 19.1673 10.0516 19.1638C9.92516 19.1515 9.79841 19.1361 9.6713 19.1163C9.65211 19.1134 9.63275 19.1092 9.61356 19.1061C9.50521 19.0884 9.39662 19.0682 9.28775 19.0449C9.24569 19.0359 9.20351 19.0257 9.16132 19.0159C9.0736 18.9955 8.98577 18.9737 8.89773 18.9498C8.85207 18.9373 8.80643 18.9246 8.76067 18.9113C8.67088 18.885 8.58092 18.8565 8.4908 18.8266C8.45024 18.8131 8.4098 18.8005 8.36918 18.7863C8.23989 18.7409 8.11033 18.6928 7.98032 18.6398L7.97931 18.6395L7.97908 18.6394C7.92773 18.6186 7.87102 18.6033 7.81283 18.5918C7.7947 18.5882 7.77608 18.5866 7.75762 18.584C7.71655 18.578 7.67522 18.5739 7.63364 18.5727C7.60461 18.5718 7.57574 18.5717 7.5471 18.5733C7.53262 18.574 7.51795 18.5745 7.50369 18.5759C7.45682 18.5805 7.41077 18.5875 7.36787 18.5991C7.27422 18.6241 7.18124 18.6457 7.08904 18.6643C7.05894 18.6704 7.02947 18.6742 6.99954 18.6797C6.93783 18.6906 6.87613 18.7019 6.81515 18.71C6.77923 18.7148 6.74393 18.7174 6.7083 18.7211C6.65415 18.727 6.59989 18.733 6.5464 18.7363C6.50892 18.7388 6.47217 18.7391 6.43508 18.7403C6.39479 18.7416 6.35408 18.7445 6.31429 18.7445L6.29186 18.7432C6.17304 18.7425 6.05629 18.7355 5.94155 18.7227C5.9157 18.7199 5.89042 18.7158 5.8648 18.7123C5.76455 18.6988 5.66598 18.6811 5.56925 18.6584C5.55018 18.654 5.53066 18.6506 5.51168 18.6458C5.40265 18.6181 5.29642 18.5836 5.19236 18.5443C5.1677 18.5349 5.14358 18.5245 5.11925 18.5146C5.02649 18.4766 4.93565 18.4344 4.84737 18.387C4.83405 18.3798 4.82012 18.3738 4.80687 18.3663C4.70959 18.3121 4.61593 18.2507 4.52469 18.1849C4.50243 18.169 4.48066 18.1523 4.45879 18.1356C4.37421 18.071 4.29186 18.0026 4.2131 17.9278L4.19217 17.9092C4.1086 17.8287 4.02966 17.7406 3.95318 17.6486C3.93461 17.6264 3.91643 17.6035 3.89824 17.5805C3.8229 17.4849 3.74995 17.3858 3.68236 17.2787C3.40075 16.833 3.2473 16.339 3.21687 15.8318C3.21178 15.7471 3.21015 15.6623 3.21188 15.5772C3.21363 15.492 3.21877 15.4067 3.22728 15.3213C3.27823 14.8089 3.45049 14.2944 3.7387 13.8126C3.83482 13.6519 3.94379 13.495 4.0654 13.3427C4.19066 13.1863 4.2555 12.9216 4.2409 12.715C4.19094 12.0086 4.126 11.3034 4.06344 10.5979L4.02177 10.119Z" fill="white"/>
<path d="M14.7554 20.5919C14.6014 20.7069 14.4464 20.8206 14.2915 20.9341C14.2221 20.9848 14.1537 21.0367 14.0841 21.0869C13.9902 21.1549 13.8928 21.2177 13.7931 21.2772C13.6933 21.3367 13.5914 21.3929 13.4885 21.4479C13.2826 21.5576 13.0729 21.6616 12.8696 21.7751C12.8832 21.808 12.8967 21.8405 12.9103 21.8733L20.4021 21.861L22.139 18.7631C22.246 18.5902 22.3492 18.4138 22.4486 18.2338C22.5181 18.1078 22.5842 17.981 22.6488 17.8537L24.6794 14.232L23.9538 12.9722L22.6802 10.6649L21.4067 8.3578L18.9687 6.81244L18.9758 6.82841C18.7805 6.71371 18.5822 6.60369 18.3812 6.49777C17.7786 6.18032 17.1535 5.90023 16.5193 5.64343C16.4922 5.63259 16.462 5.62511 16.4301 5.62028L16.3964 5.61765C16.3752 5.61574 16.3539 5.61399 16.3314 5.61428C16.2816 5.61486 16.2292 5.62101 16.1762 5.63097L16.1395 5.63903C16.0907 5.65002 16.0418 5.66408 15.9944 5.68152L15.9768 5.68737C15.9257 5.7073 15.8776 5.73118 15.8329 5.75696L15.8025 5.77556C15.759 5.8031 15.7185 5.8324 15.6874 5.86405C15.5911 5.96234 15.547 6.16025 15.5473 6.35436C15.5473 6.39318 15.5492 6.43186 15.5528 6.46951C15.5598 6.54495 15.5738 6.61629 15.594 6.67723C15.6188 6.75135 15.6749 6.81801 15.7468 6.87836C15.7707 6.89843 15.7965 6.91792 15.8233 6.93682C15.8673 6.96758 15.9145 6.9963 15.9622 7.02398C15.9831 7.03614 16.0037 7.04815 16.0248 7.05973C16.0729 7.08654 16.1206 7.11232 16.1651 7.13664C16.9643 7.5748 17.652 8.09558 18.221 8.70543C18.5055 9.01029 18.7603 9.3374 18.9846 9.68767C19.1341 9.92133 19.27 10.165 19.392 10.4193C19.4764 10.5951 19.5517 10.7777 19.6227 10.9638C19.8086 11.4501 19.951 11.9696 20.0434 12.5272C20.0597 12.626 20.0956 12.73 20.145 12.8269C20.1944 12.9237 20.2573 13.0131 20.3276 13.0824C20.471 13.2237 20.601 13.3696 20.7179 13.5195C20.8348 13.6692 20.9382 13.823 21.0281 13.9799C21.1631 14.2152 21.2675 14.4576 21.341 14.7048C21.39 14.8696 21.4251 15.0364 21.4461 15.2046C21.5199 15.7934 21.4216 16.3985 21.1428 16.9889C21.0827 17.1161 21.0129 17.2355 20.9383 17.3502C20.9274 17.367 20.9172 17.3843 20.9059 17.4008C20.8329 17.5082 20.753 17.6092 20.6679 17.7047C20.6522 17.7224 20.6361 17.7398 20.6199 17.7573C20.5327 17.8506 20.4405 17.9385 20.3425 18.0193C20.3279 18.0314 20.3127 18.0423 20.298 18.0541C20.1943 18.1362 20.0868 18.2131 19.9728 18.2813L19.969 18.2838C19.8545 18.3519 19.7337 18.4108 19.61 18.4642C19.5915 18.4723 19.5735 18.4809 19.5547 18.4886C19.4353 18.5375 19.3118 18.5788 19.1851 18.6138C19.1613 18.6204 19.1375 18.6266 19.1136 18.6327C18.9853 18.6651 18.8543 18.6915 18.7198 18.7093C18.7003 18.712 18.6805 18.7134 18.6609 18.7156C18.5221 18.7319 18.3811 18.742 18.237 18.7423L18.2274 18.7429L18.2234 18.7427C18.1627 18.7427 18.1011 18.7391 18.0398 18.7361C18.0073 18.7347 17.9754 18.7348 17.9427 18.7325C17.8483 18.7257 17.7531 18.7155 17.6573 18.7019C17.6176 18.6961 17.5745 18.6979 17.5313 18.7005C17.5116 18.7017 17.4919 18.7035 17.4718 18.7062C17.44 18.7106 17.408 18.7174 17.3759 18.7254C17.3567 18.7301 17.3375 18.7344 17.3186 18.7404C17.2842 18.7512 17.2511 18.7647 17.2183 18.7788C17.2027 18.7855 17.1865 18.7911 17.1715 18.7985C17.1248 18.8215 17.0806 18.847 17.0419 18.8752C16.5447 19.2377 16.0546 19.6104 15.5639 19.9825C15.4279 20.0859 15.2913 20.1885 15.1548 20.2916L14.7554 20.5919Z" fill="white"/>
<path d="M8.90719 15.5826C8.90719 17.0191 7.76881 18.1836 6.36448 18.1836C4.96016 18.1836 3.82178 17.0191 3.82178 15.5826C3.82178 14.1462 4.96016 12.9816 6.36448 12.9816C7.76881 12.9816 8.90719 14.1462 8.90719 15.5826Z" fill="white"/>
<path d="M14.9458 5.03488C14.9458 6.47139 13.8074 7.63586 12.4031 7.63586C10.9988 7.63586 9.86035 6.47139 9.86035 5.03488C9.86035 3.59851 10.9988 2.43388 12.4031 2.43388C13.8074 2.43388 14.9458 3.59851 14.9458 5.03488Z" fill="white"/>
</svg>
